<?xml version="1.0" encoding="UTF-8" standalone="no"?>
<svg width="99px" height="32px" viewBox="0 0 99 32" version="1.1" xmlns="http://www.w3.org/2000/svg" xmlns:xlink="http://www.w3.org/1999/xlink">
    <!-- Generator: Sketch 3.6 (26304) - http://www.bohemiancoding.com/sketch -->
    <title>OmninsLogo</title>
    <desc>Created with Sketch.</desc>
    <defs>
        <filter x="-50%" y="-50%" width="200%" height="200%" filterUnits="objectBoundingBox" id="filter-1">
            <feOffset dx="0" dy="1" in="SourceAlpha" result="shadowOffsetOuter1"></feOffset>
            <feGaussianBlur stdDeviation="0.5" in="shadowOffsetOuter1" result="shadowBlurOuter1"></feGaussianBlur>
            <feColorMatrix values="0 0 0 0 0   0 0 0 0 0   0 0 0 0 0  0 0 0 0.135252491 0" in="shadowBlurOuter1" type="matrix" result="shadowMatrixOuter1"></feColorMatrix>
            <feMerge>
                <feMergeNode in="shadowMatrixOuter1"></feMergeNode>
                <feMergeNode in="SourceGraphic"></feMergeNode>
            </feMerge>
        </filter>
    </defs>
    <g id="ThemedForWomensDay" stroke="none" stroke-width="1" fill="none" fill-rule="evenodd" filter="url(#filter-1)">
        <g id="Desktop" transform="translate(-19.000000, -24.000000)">
            <g id="HeaderNavigation">
                <g id="OmninsLogo" transform="translate(20.000000, 24.000000)">
                    <path d="M5.25771429,4.06628571 L0,4.06628571 L0,0.262285714 L28.5222857,0.262285714 L26.8285714,4.06628571 L10.3765714,4.06628571 L9.468,8.934 L27.9874286,8.934 L27.9874286,24.9797143 L22.8205714,28.896 L16.8737143,28.9122857 L16.8737143,25.1082857 L22.7777143,25.0757143 L22.7777143,12.7705714 L8.93914286,12.7705714 L5.99485714,28.896 L0.470571429,28.9122857 L5.25771429,4.06628571" id="Fill-111" fill="#D9222A"></path>
                    <path d="M41.4154286,21.864 L40.4322857,24.2794286 L37.83,24.2794286 L37.83,27.6137143 L33.1328571,29.4094286 L33.1328571,10.2377143 L46.128,10.2377143 L46.128,25.2462857 L42.2597143,28.9868571 L39.1174286,28.9868571 L39.1174286,25.7648571 L41.4154286,25.7648571 L41.4154286,21.864 L41.4154286,21.864 Z M41.4154286,21.1594286 L41.4154286,16.3234286 L40.368,18.8451429 L37.83,18.8451429 L37.83,21.1594286 L41.4154286,21.1594286 L41.4154286,21.1594286 Z M37.83,15.7302857 L41.4154286,15.7302857 L41.4154286,13.3371429 L37.83,13.3371429 L37.83,15.7302857 Z M37.83,5.64771429 L41.586,5.64771429 L40.7897143,2.68714286 L45.1877143,2.68714286 L46.7691429,8.77885714 L42.3711429,8.77885714 L41.7462857,6.33685714 L40.6834286,8.77885714 L32.7428571,8.77885714 L32.7428571,5.38028571 L36.4834286,0.246 L41.5114286,0.246 L37.83,5.64771429 L37.83,5.64771429 Z M52.5608571,15.0574286 L52.5608571,16.9568571 L60.9985714,14.9365714 L60.3411429,18.6934286 L52.5608571,20.6494286 L52.5608571,25.7648571 L55.1451429,25.7648571 L56.2448571,28.896 L47.9125714,28.896 L47.9125714,15.0574286 L52.5608571,15.0574286 L52.5608571,15.0574286 Z M47.9125714,0.246 L52.5608571,0.246 L52.5608571,3.20571429 L60.7628571,1.04742857 L60.138,5.02285714 L52.6251429,6.96257143 L52.6251429,10.986 L61.1845714,10.986 L59.7317143,14.1171429 L47.9125714,14.1171429 L47.9125714,0.246 L47.9125714,0.246 Z" id="Fill-112" fill="#D9222A"></path>
                    <path d="M69.9334286,0 L75.084,0 L64.758,29.4162857 L59.6074286,29.4162857 L69.9334286,0" id="Fill-113" fill="#EB8B2D"></path>
                    <path d="M55.7931429,21.5468571 L58.5557143,29.4162857 L63.2828571,29.4162857 L60.1371429,20.4548571 L55.7931429,21.5468571" id="Fill-114" fill="#EB8B2D"></path>
                    <path d="M88.6482857,13.3688571 L88.6482857,15.228 L96.348,15.228 L94.7657143,18.5305714 L88.6482857,18.5305714 L88.6482857,27.186 L83.6845714,29.3177143 L83.6845714,18.5305714 L75.3111429,18.5305714 L75.3111429,15.228 L83.6845714,15.228 L83.6845714,13.3688571 L75.9205714,13.38 L75.9077143,2.94514286 L76.8325714,0.310285714 L96.1448571,0.310285714 L96.1448571,10.0774286 L91.8111429,13.3688571 L88.6482857,13.3688571 L88.6482857,13.3688571 Z M91.1382857,3.69257143 L80.9588571,3.69257143 L80.9588571,10.1417143 L91.122,10.1417143 L91.1382857,3.69257143 L91.1382857,3.69257143 Z M77.9562857,19.9251429 L82.6208571,19.9251429 L79.9602857,28.41 L75.108,28.41 L77.9562857,19.9251429 L77.9562857,19.9251429 Z M89.8988571,19.8771429 L94.3122857,19.8771429 L95.9734286,28.4742857 L91.4322857,28.4742857 L89.8988571,19.8771429 L89.8988571,19.8771429 Z M74.0717143,8.17457143 L74.0717143,27.8168571 L69.0968571,29.9914286 L69.0968571,22.3465714 L74.0717143,8.17457143 L74.0717143,8.17457143 Z" id="Fill-115" fill="#D9222A"></path>
                </g>
            </g>
        </g>
    </g>
</svg>